Final Project Draft
…
Specific questions including:

Do pop artists remain longer on the billboards in average?

## # A tibble: 2 x 2
## # Groups:   top.genre [2]
##   top.genre     n
##   <chr>     <int>
## 1 pop         485
## 2 non_pop     118

From the form pop_nonpop we can see that there are 485 songs labeled with pop and 118 that are not labeled pop. Our evaluation will be based on the difference between the artists of the 485 pop songs and the 118 non-pop songs.

## # A tibble: 184 x 4
## # Groups:   top.genre, artist [184]
##    top.genre artist                  n index
##    <chr>     <chr>               <int> <int>
##  1 pop       3OH!3                   1     1
##  2 non_pop   5 Seconds of Summer     1     2
##  3 non_pop   A Great Big World       1     3
##  4 pop       Adam Lambert            1     4
##  5 non_pop   Adele                   5     5
##  6 non_pop   Alan Walker             1     6
##  7 non_pop   Alessia Cara            3     7
##  8 non_pop   Alesso                  1     8
##  9 pop       Alicia Keys             4     9
## 10 pop       Ansel Elgort            1    10
## # ... with 174 more rows
…
