2020-midterm.utf8
…
(a) (5 points) Using the data from the states.csv, write a code chunk to add a quantitative variable lean_d which measures the amount the state leans to the Democratic party using values in lean in the following way.

If the state leans Republican, such as R+27, the value should be -27.

If the state leans Democratic, such as D+24, the value should be 24.

If the state leans evenly with lean equal to EVEN, the value should be 0.

states <- states %>% mutate(lean_d = case_when( lean == "EVEN" ~ 0,
                                    grepl("D",lean) ~ as.numeric(str_replace(lean, "[A-z][\\+]", "")),
                                    grepl("R",lean) ~ as.numeric(str_replace(lean, "[A-z][\\+]", "")) * -1))
states

## # A tibble: 50 x 10
##    state region division urban_index lean  poll_2020_D poll_2020_R pct_bach
##    <chr> <chr>  <chr>          <dbl> <chr>       <dbl>       <dbl>    <dbl>
##  1 Alab~ South  East So~        4.17 R+27           36          58     26.3
##  2 Alas~ West   Pacific         3.79 R+15           46          47     30.2
##  3 Ariz~ West   Mountain        4.91 R+9            49          46     30.2
##  4 Arka~ South  West So~        4.02 R+24           45          47     23.3
##  5 Cali~ West   Pacific         5.29 D+24           59          32     35  
##  6 Colo~ West   Mountain        4.84 D+1            49          43     42.7
##  7 Conn~ North~ New Eng~        4.96 D+11           56          33     39.8
##  8 Dela~ South  South A~        4.78 D+14           58          37     33.2
##  9 Flor~ South  South A~        4.98 R+5            50          45     30.7
## 10 Geor~ South  South A~        4.58 R+12           46          48     32.5
## # ... with 40 more rows, and 2 more variables: pct_dem <dbl>, lean_d <dbl>
…
(c) (4 points) Add a variable called period that divides up the years from 1985 through 2014 into groups of five consecutive years (1985-1989, 1990-1994, , 2010-2014). You can modify the existing code below.

Use the function head() to print the first 6 rows of this data frame.

## Set labels for period variable
breaks <- seq(1984,2014,5)
labels <- str_c((breaks+1)[-length(breaks)],breaks[-1],sep="-")

## Build requested data frame
df_1 <- df_1 %>% mutate(period = cut(yearID, breaks = breaks, labels = labels)) %>% drop_na()

df_1

## # A tibble: 16,996 x 7
##    playerID  yearID  salary debut      finalGame  allstar_status period   
##    <chr>      <dbl>   <dbl> <date>     <date>     <chr>          <fct>    
##  1 abadan01    2006  327000 2001-09-10 2006-04-13 not_allstar    2005-2009
##  2 abbotje01   1998  175000 1997-06-10 2001-09-29 not_allstar    1995-1999
##  3 abbotje01   1999  255000 1997-06-10 2001-09-29 not_allstar    1995-1999
##  4 abbotje01   2000  255000 1997-06-10 2001-09-29 not_allstar    2000-2004
##  5 abbotje01   2001  300000 1997-06-10 2001-09-29 not_allstar    2000-2004
##  6 abbotji01   1989   68000 1989-04-08 1999-07-21 not_allstar    1985-1989
##  7 abbotji01   1990  185000 1989-04-08 1999-07-21 not_allstar    1990-1994
##  8 abbotji01   1991  357500 1989-04-08 1999-07-21 not_allstar    1990-1994
##  9 abbotji01   1992 1850000 1989-04-08 1999-07-21 not_allstar    1990-1994
## 10 abbotji01   1993 2350000 1989-04-08 1999-07-21 not_allstar    1990-1994
## # ... with 16,986 more rows
…
